('C:\\Users\\Mijail '
 'QA\\Documents\\ToolAutomateCliente\\Queeus-Insert\\build\\Queeu-Insert\\PKG-00.pkg',
 {'BINARY': 1,
  'DATA': 1,
  'EXECUTABLE': 1,
  'EXTENSION': 1,
  'PYMODULE': 1,
  'PYSOURCE': 1,
  'PYZ': 0},
 [('PYZ-00.pyz',
   'C:\\Users\\Mijail '
   'QA\\Documents\\ToolAutomateCliente\\Queeus-Insert\\build\\Queeu-Insert\\PYZ-00.pyz',
   'PYZ'),
  ('struct',
   'c:\\users\\mijail '
   'qa\\appdata\\local\\programs\\python\\python37\\lib\\struct.pyo',
   'PYMODULE'),
  ('pyimod01_os_path',
   'c:\\users\\mijail '
   'qa\\appdata\\local\\programs\\python\\python37\\lib\\site-packages\\PyInstaller\\loader\\pyimod01_os_path.pyc',
   'PYMODULE'),
  ('pyimod02_archive',
   'c:\\users\\mijail '
   'qa\\appdata\\local\\programs\\python\\python37\\lib\\site-packages\\PyInstaller\\loader\\pyimod02_archive.pyc',
   'PYMODULE'),
  ('pyimod03_importers',
   'c:\\users\\mijail '
   'qa\\appdata\\local\\programs\\python\\python37\\lib\\site-packages\\PyInstaller\\loader\\pyimod03_importers.pyc',
   'PYMODULE'),
  ('pyiboot01_bootstrap',
   'c:\\users\\mijail '
   'qa\\appdata\\local\\programs\\python\\python37\\lib\\site-packages\\PyInstaller\\loader\\pyiboot01_bootstrap.py',
   'PYSOURCE'),
  ('pyi_rth_certifi',
   'c:\\users\\mijail '
   'qa\\appdata\\local\\programs\\python\\python37\\lib\\site-packages\\PyInstaller\\loader\\rthooks\\pyi_rth_certifi.py',
   'PYSOURCE'),
  ('pyi_rth_pkgres',
   'c:\\users\\mijail '
   'qa\\appdata\\local\\programs\\python\\python37\\lib\\site-packages\\PyInstaller\\loader\\rthooks\\pyi_rth_pkgres.py',
   'PYSOURCE'),
  ('pyi_rth_win32comgenpy',
   'c:\\users\\mijail '
   'qa\\appdata\\local\\programs\\python\\python37\\lib\\site-packages\\PyInstaller\\loader\\rthooks\\pyi_rth_win32comgenpy.py',
   'PYSOURCE'),
  ('pyi_rth_multiprocessing',
   'c:\\users\\mijail '
   'qa\\appdata\\local\\programs\\python\\python37\\lib\\site-packages\\PyInstaller\\loader\\rthooks\\pyi_rth_multiprocessing.py',
   'PYSOURCE'),
  ('Queeu-Insert',
   'C:\\Users\\Mijail '
   'QA\\Documents\\ToolAutomateCliente\\Queeus-Insert\\Queeu-Insert.py',
   'PYSOURCE'),
  ('VCRUNTIME140.dll',
   'c:\\users\\mijail '
   'qa\\appdata\\local\\programs\\python\\python37\\VCRUNTIME140.dll',
   'BINARY'),
  ('python37.dll',
   'c:\\users\\mijail '
   'qa\\appdata\\local\\programs\\python\\python37\\python37.dll',
   'BINARY'),
  ('pywintypes37.dll',
   'c:\\users\\mijail '
   'qa\\appdata\\local\\programs\\python\\python37\\lib\\site-packages\\pywin32_system32\\pywintypes37.dll',
   'BINARY'),
  ('pythoncom37.dll',
   'c:\\users\\mijail '
   'qa\\appdata\\local\\programs\\python\\python37\\lib\\site-packages\\pywin32_system32\\pythoncom37.dll',
   'BINARY'),
  ('_decimal',
   'c:\\users\\mijail '
   'qa\\appdata\\local\\programs\\python\\python37\\DLLs\\_decimal.pyd',
   'EXTENSION'),
  ('_ctypes',
   'c:\\users\\mijail '
   'qa\\appdata\\local\\programs\\python\\python37\\DLLs\\_ctypes.pyd',
   'EXTENSION'),
  ('_queue',
   'c:\\users\\mijail '
   'qa\\appdata\\local\\programs\\python\\python37\\DLLs\\_queue.pyd',
   'EXTENSION'),
  ('_multiprocessing',
   'c:\\users\\mijail '
   'qa\\appdata\\local\\programs\\python\\python37\\DLLs\\_multiprocessing.pyd',
   'EXTENSION'),
  ('win32trace',
   'c:\\users\\mijail '
   'qa\\appdata\\local\\programs\\python\\python37\\lib\\site-packages\\win32\\win32trace.pyd',
   'EXTENSION'),
  ('win32ui',
   'c:\\users\\mijail '
   'qa\\appdata\\local\\programs\\python\\python37\\lib\\site-packages\\Pythonwin\\win32ui.pyd',
   'EXTENSION'),
  ('_win32sysloader',
   'c:\\users\\mijail '
   'qa\\appdata\\local\\programs\\python\\python37\\lib\\site-packages\\win32\\_win32sysloader.pyd',
   'EXTENSION'),
  ('win32api',
   'c:\\users\\mijail '
   'qa\\appdata\\local\\programs\\python\\python37\\lib\\site-packages\\win32\\win32api.pyd',
   'EXTENSION'),
  ('win32com.shell.shell',
   'c:\\users\\mijail '
   'qa\\appdata\\local\\programs\\python\\python37\\lib\\site-packages\\win32comext\\shell\\shell.pyd',
   'EXTENSION'),
  ('win32wnet',
   'c:\\users\\mijail '
   'qa\\appdata\\local\\programs\\python\\python37\\lib\\site-packages\\win32\\win32wnet.pyd',
   'EXTENSION'),
  ('_elementtree',
   'c:\\users\\mijail '
   'qa\\appdata\\local\\programs\\python\\python37\\DLLs\\_elementtree.pyd',
   'EXTENSION'),
  ('_cffi_backend',
   'c:\\users\\mijail '
   'qa\\appdata\\local\\programs\\python\\python37\\lib\\site-packages\\_cffi_backend.cp37-win_amd64.pyd',
   'EXTENSION'),
  ('numpy.core._multiarray_tests',
   'c:\\users\\mijail '
   'qa\\appdata\\local\\programs\\python\\python37\\lib\\site-packages\\numpy\\core\\_multiarray_tests.cp37-win_amd64.pyd',
   'EXTENSION'),
  ('psutil._psutil_windows',
   'c:\\users\\mijail '
   'qa\\appdata\\local\\programs\\python\\python37\\lib\\site-packages\\psutil\\_psutil_windows.cp37-win_amd64.pyd',
   'EXTENSION'),
  ('numpy.core._multiarray_umath',
   'c:\\users\\mijail '
   'qa\\appdata\\local\\programs\\python\\python37\\lib\\site-packages\\numpy\\core\\_multiarray_umath.cp37-win_amd64.pyd',
   'EXTENSION'),
  ('win32pdh',
   'c:\\users\\mijail '
   'qa\\appdata\\local\\programs\\python\\python37\\lib\\site-packages\\win32\\win32pdh.pyd',
   'EXTENSION'),
  ('numpy.random.mtrand',
   'c:\\users\\mijail '
   'qa\\appdata\\local\\programs\\python\\python37\\lib\\site-packages\\numpy\\random\\mtrand.cp37-win_amd64.pyd',
   'EXTENSION'),
  ('numpy.random._sfc64',
   'c:\\users\\mijail '
   'qa\\appdata\\local\\programs\\python\\python37\\lib\\site-packages\\numpy\\random\\_sfc64.cp37-win_amd64.pyd',
   'EXTENSION'),
  ('numpy.random._philox',
   'c:\\users\\mijail '
   'qa\\appdata\\local\\programs\\python\\python37\\lib\\site-packages\\numpy\\random\\_philox.cp37-win_amd64.pyd',
   'EXTENSION'),
  ('numpy.random._pcg64',
   'c:\\users\\mijail '
   'qa\\appdata\\local\\programs\\python\\python37\\lib\\site-packages\\numpy\\random\\_pcg64.cp37-win_amd64.pyd',
   'EXTENSION'),
  ('numpy.random._mt19937',
   'c:\\users\\mijail '
   'qa\\appdata\\local\\programs\\python\\python37\\lib\\site-packages\\numpy\\random\\_mt19937.cp37-win_amd64.pyd',
   'EXTENSION'),
  ('numpy.random._bit_generator',
   'c:\\users\\mijail '
   'qa\\appdata\\local\\programs\\python\\python37\\lib\\site-packages\\numpy\\random\\_bit_generator.cp37-win_amd64.pyd',
   'EXTENSION'),
  ('numpy.random._generator',
   'c:\\users\\mijail '
   'qa\\appdata\\local\\programs\\python\\python37\\lib\\site-packages\\numpy\\random\\_generator.cp37-win_amd64.pyd',
   'EXTENSION'),
  ('numpy.random._bounded_integers',
   'c:\\users\\mijail '
   'qa\\appdata\\local\\programs\\python\\python37\\lib\\site-packages\\numpy\\random\\_bounded_integers.cp37-win_amd64.pyd',
   'EXTENSION'),
  ('numpy.random._common',
   'c:\\users\\mijail '
   'qa\\appdata\\local\\programs\\python\\python37\\lib\\site-packages\\numpy\\random\\_common.cp37-win_amd64.pyd',
   'EXTENSION'),
  ('numpy.fft._pocketfft_internal',
   'c:\\users\\mijail '
   'qa\\appdata\\local\\programs\\python\\python37\\lib\\site-packages\\numpy\\fft\\_pocketfft_internal.cp37-win_amd64.pyd',
   'EXTENSION'),
  ('numpy.linalg._umath_linalg',
   'c:\\users\\mijail '
   'qa\\appdata\\local\\programs\\python\\python37\\lib\\site-packages\\numpy\\linalg\\_umath_linalg.cp37-win_amd64.pyd',
   'EXTENSION'),
  ('numpy.linalg.lapack_lite',
   'c:\\users\\mijail '
   'qa\\appdata\\local\\programs\\python\\python37\\lib\\site-packages\\numpy\\linalg\\lapack_lite.cp37-win_amd64.pyd',
   'EXTENSION'),
  ('_ssl',
   'c:\\users\\mijail '
   'qa\\appdata\\local\\programs\\python\\python37\\DLLs\\_ssl.pyd',
   'EXTENSION'),
  ('pyexpat',
   'c:\\users\\mijail '
   'qa\\appdata\\local\\programs\\python\\python37\\DLLs\\pyexpat.pyd',
   'EXTENSION'),
  ('unicodedata',
   'c:\\users\\mijail '
   'qa\\appdata\\local\\programs\\python\\python37\\DLLs\\unicodedata.pyd',
   'EXTENSION'),
  ('_hashlib',
   'c:\\users\\mijail '
   'qa\\appdata\\local\\programs\\python\\python37\\DLLs\\_hashlib.pyd',
   'EXTENSION'),
  ('_bz2',
   'c:\\users\\mijail '
   'qa\\appdata\\local\\programs\\python\\python37\\DLLs\\_bz2.pyd',
   'EXTENSION'),
  ('_lzma',
   'c:\\users\\mijail '
   'qa\\appdata\\local\\programs\\python\\python37\\DLLs\\_lzma.pyd',
   'EXTENSION'),
  ('_socket',
   'c:\\users\\mijail '
   'qa\\appdata\\local\\programs\\python\\python37\\DLLs\\_socket.pyd',
   'EXTENSION'),
  ('select',
   'c:\\users\\mijail '
   'qa\\appdata\\local\\programs\\python\\python37\\DLLs\\select.pyd',
   'EXTENSION'),
  ('cryptography.hazmat.bindings._openssl',
   'c:\\users\\mijail '
   'qa\\appdata\\local\\programs\\python\\python37\\lib\\site-packages\\cryptography\\hazmat\\bindings\\_openssl.cp37-win_amd64.pyd',
   'EXTENSION'),
  ('cryptography.hazmat.bindings._constant_time',
   'c:\\users\\mijail '
   'qa\\appdata\\local\\programs\\python\\python37\\lib\\site-packages\\cryptography\\hazmat\\bindings\\_constant_time.cp37-win_amd64.pyd',
   'EXTENSION'),
  ('cryptography.hazmat.bindings._padding',
   'c:\\users\\mijail '
   'qa\\appdata\\local\\programs\\python\\python37\\lib\\site-packages\\cryptography\\hazmat\\bindings\\_padding.cp37-win_amd64.pyd',
   'EXTENSION'),
  ('_overlapped',
   'c:\\users\\mijail '
   'qa\\appdata\\local\\programs\\python\\python37\\DLLs\\_overlapped.pyd',
   'EXTENSION'),
  ('_asyncio',
   'c:\\users\\mijail '
   'qa\\appdata\\local\\programs\\python\\python37\\DLLs\\_asyncio.pyd',
   'EXTENSION'),
  ('markupsafe._speedups',
   'c:\\users\\mijail '
   'qa\\appdata\\local\\programs\\python\\python37\\lib\\site-packages\\markupsafe\\_speedups.cp37-win_amd64.pyd',
   'EXTENSION'),
  ('mfc140u.dll',
   'c:\\users\\mijail '
   'qa\\appdata\\local\\programs\\python\\python37\\lib\\site-packages\\Pythonwin\\mfc140u.dll',
   'BINARY'),
  ('libopenblas.PYQHXLVVQ7VESDPUVUADXEVJOBGHJPAY.gfortran-win_amd64.dll',
   'c:\\users\\mijail '
   'qa\\appdata\\local\\programs\\python\\python37\\lib\\site-packages\\numpy\\.libs\\libopenblas.pyqhxlvvq7vesdpuvuadxevjobghjpay.gfortran-win_amd64.dll',
   'BINARY'),
  ('libcrypto-1_1.dll',
   'c:\\users\\mijail '
   'qa\\appdata\\local\\programs\\python\\python37\\DLLs\\libcrypto-1_1.dll',
   'BINARY'),
  ('libssl-1_1.dll',
   'c:\\users\\mijail '
   'qa\\appdata\\local\\programs\\python\\python37\\DLLs\\libssl-1_1.dll',
   'BINARY'),
  ('base_library.zip',
   'C:\\Users\\Mijail '
   'QA\\Documents\\ToolAutomateCliente\\Queeus-Insert\\build\\Queeu-Insert\\base_library.zip',
   'DATA'),
  ('cryptography-2.8-py3.7.egg-info\\LICENSE.APACHE',
   'c:\\users\\mijail '
   'qa\\appdata\\local\\programs\\python\\python37\\lib\\site-packages\\cryptography-2.8.dist-info\\LICENSE.APACHE',
   'DATA'),
  ('cryptography-2.8-py3.7.egg-info\\AUTHORS.rst',
   'c:\\users\\mijail '
   'qa\\appdata\\local\\programs\\python\\python37\\lib\\site-packages\\cryptography-2.8.dist-info\\AUTHORS.rst',
   'DATA'),
  ('cryptography-2.8-py3.7.egg-info\\METADATA',
   'c:\\users\\mijail '
   'qa\\appdata\\local\\programs\\python\\python37\\lib\\site-packages\\cryptography-2.8.dist-info\\METADATA',
   'DATA'),
  ('lib2to3\\PatternGrammar3.7.5.final.0.pickle',
   'c:\\users\\mijail '
   'qa\\appdata\\local\\programs\\python\\python37\\lib\\lib2to3\\PatternGrammar3.7.5.final.0.pickle',
   'DATA'),
  ('certifi\\cacert.pem',
   'c:\\users\\mijail '
   'qa\\appdata\\local\\programs\\python\\python37\\lib\\site-packages\\certifi\\cacert.pem',
   'DATA'),
  ('cryptography-2.8-py3.7.egg-info\\top_level.txt',
   'c:\\users\\mijail '
   'qa\\appdata\\local\\programs\\python\\python37\\lib\\site-packages\\cryptography-2.8.dist-info\\top_level.txt',
   'DATA'),
  ('Include\\pyconfig.h',
   'c:\\users\\mijail '
   'qa\\appdata\\local\\programs\\python\\python37\\Include\\pyconfig.h',
   'DATA'),
  ('cryptography-2.8-py3.7.egg-info\\RECORD',
   'c:\\users\\mijail '
   'qa\\appdata\\local\\programs\\python\\python37\\lib\\site-packages\\cryptography-2.8.dist-info\\RECORD',
   'DATA'),
  ('lib2to3\\tests\\data\\README',
   'c:\\users\\mijail '
   'qa\\appdata\\local\\programs\\python\\python37\\lib\\lib2to3\\tests\\data\\README',
   'DATA'),
  ('cryptography-2.8-py3.7.egg-info\\LICENSE.BSD',
   'c:\\users\\mijail '
   'qa\\appdata\\local\\programs\\python\\python37\\lib\\site-packages\\cryptography-2.8.dist-info\\LICENSE.BSD',
   'DATA'),
  ('lib2to3\\PatternGrammar.txt',
   'c:\\users\\mijail '
   'qa\\appdata\\local\\programs\\python\\python37\\lib\\lib2to3\\PatternGrammar.txt',
   'DATA'),
  ('cryptography-2.8-py3.7.egg-info\\WHEEL',
   'c:\\users\\mijail '
   'qa\\appdata\\local\\programs\\python\\python37\\lib\\site-packages\\cryptography-2.8.dist-info\\WHEEL',
   'DATA'),
  ('lib2to3\\Grammar3.7.5.final.0.pickle',
   'c:\\users\\mijail '
   'qa\\appdata\\local\\programs\\python\\python37\\lib\\lib2to3\\Grammar3.7.5.final.0.pickle',
   'DATA'),
  ('cryptography-2.8-py3.7.egg-info\\LICENSE',
   'c:\\users\\mijail '
   'qa\\appdata\\local\\programs\\python\\python37\\lib\\site-packages\\cryptography-2.8.dist-info\\LICENSE',
   'DATA'),
  ('lib2to3\\Grammar.txt',
   'c:\\users\\mijail '
   'qa\\appdata\\local\\programs\\python\\python37\\lib\\lib2to3\\Grammar.txt',
   'DATA'),
  ('cryptography-2.8-py3.7.egg-info\\LICENSE.PSF',
   'c:\\users\\mijail '
   'qa\\appdata\\local\\programs\\python\\python37\\lib\\site-packages\\cryptography-2.8.dist-info\\LICENSE.PSF',
   'DATA'),
  ('cryptography-2.8-py3.7.egg-info\\INSTALLER',
   'c:\\users\\mijail '
   'qa\\appdata\\local\\programs\\python\\python37\\lib\\site-packages\\cryptography-2.8.dist-info\\INSTALLER',
   'DATA'),
  ('Queeu-Insert.exe.manifest',
   'C:\\Users\\Mijail '
   'QA\\Documents\\ToolAutomateCliente\\Queeus-Insert\\build\\Queeu-Insert\\Queeu-Insert.exe.manifest',
   'BINARY'),
  ('pyi-windows-manifest-filename Queeu-Insert.exe.manifest', '', 'OPTION')],
 False,
 False,
 False,
 [])
